Tarea_3/src/build/clk_cut_tb.vcd
$date
	Wed Nov 06 16:04:21 2024
$end
$version
	Icarus Verilog
$end
$timescale
	1s
$end
$scope module tb_clk_cut $end
$var wire 1 ! clk_cut $end
$var reg 1 " clk $end
$var reg 1 # reset $end
$var reg 1 $ stop_flag $end
$scope module uut $end
$var wire 1 " clk $end
$var wire 1 # reset $end
$var wire 1 $ stop_flag $end
$var reg 1 ! clk_cut $end
$var reg 32 % counter [31:0] $end
$var reg 8 & stop_count [7:0] $end
$upscope $end
$upscope $end
$enddefinitions $end
$comment Show the parameter values. $end
$dumpall
$end
#0
$dumpvars
b0 &
b0 %
0$
1#
0"
0!
$end
#5
1"
#10
0"
#15
1"
#20
0"
0#
#25
b1 %
1"
#30
0"
#35
1!
b0 %
1"
#40
0"
#45
b1 %
1"
#50
0"
#55
0!
b0 %
1"
#60
0"
#65
b1 %
1"
#70
0"
#75
1!
b0 %
1"
#80
0"
#85
b1 %
1"
#90
0"
#95
0!
b0 %
1"
#100
0"
#105
b1 %
1"
#110
0"
#115
1!
b0 %
1"
#120
0"
#125
b1 %
1"
#130
0"
#135
0!
b0 %
1"
#140
0"
#145
b1 %
1"
#150
0"
#155
1!
b0 %
1"
#160
0"
#165
b1 %
1"
#170
0"
#175
0!
b0 %
1"
#180
0"
#185
b1 %
1"
#190
0"
#195
1!
b0 %
1"
#200
0"
#205
b1 %
1"
#210
0"
#215
0!
b0 %
1"
#220
0"
#225
b1 %
1"
#230
0"
#235
1!
b0 %
1"
#240
0"
#245
b1 %
1"
#250
0"
#255
0!
b0 %
1"
#260
0"
#265
b1 %
1"
#270
b1 &
0"
1$
#275
b10 &
1"
#280
0"
0$
#285
b11 &
1"
#290
0"
#295
b100 &
1"
#300
0"
#305
b101 &
1"
#310
0"
#315
b110 &
1"
#320
0"
#325
b111 &
1"
#330
0"
#335
b0 &
1"
#340
0"
#345
1!
b0 %
1"
#350
0"
#355
b1 %
1"
#360
0"
#365
0!
b0 %
1"
#370
0"
#375
b1 %
1"
#380
0"
#385
1!
b0 %
1"
#390
0"
#395
b1 %
1"
#400
0"
#405
0!
b0 %
1"
#410
0"
#415
b1 %
1"
#420
0"
#425
1!
b0 %
1"
#430
0"
#435
b1 %
1"
#440
0"
#445
0!
b0 %
1"
#450
0"
#455
b1 %
1"
#460
0"
#465
1!
b0 %
1"
#470
0"
#475
b1 %
1"
#480
0"
#485
0!
b0 %
1"
#490
0"
#495
b1 %
1"
#500
0"
#505
1!
b0 %
1"
#510
0"
#515
b1 %
1"
#520
0"
#525
0!
b0 %
1"
