Tarea_3/src/build/module_call_tb.vcd
$date
	Wed Nov 13 00:02:17 2024
$end
$version
	Icarus Verilog
$end
$timescale
	1s
$end
$scope module module_call_tb $end
$var wire 4 ! colum [3:0] $end
$var reg 1 " clk $end
$var reg 1 # reset $end
$var reg 4 $ row [3:0] $end
$scope module uut $end
$var wire 1 " clk $end
$var wire 1 # reset $end
$var wire 4 % row [3:0] $end
$var wire 16 & z_out [15:0] $end
$var wire 4 ' sync_row [3:0] $end
$var wire 4 ( stored_row [3:0] $end
$var wire 1 ) stop_flag $end
$var wire 1 * segG $end
$var wire 1 + segF $end
$var wire 1 , segE $end
$var wire 1 - segD $end
$var wire 1 . segC $end
$var wire 1 / segB $end
$var wire 1 0 segA $end
$var wire 16 1 salida_bcd [15:0] $end
$var wire 2 2 row_code [1:0] $end
$var wire 1 3 result_ok $end
$var wire 1 4 reset_input_ff $end
$var wire 4 5 num_deco_out [3:0] $end
$var wire 1 6 neg_sign_disp $end
$var wire 1 7 neg_sign $end
$var wire 1 8 neg_flag2 $end
$var wire 1 9 neg_flag1 $end
$var wire 1 : multiplic_flag $end
$var wire 16 ; mult_result_bcd [15:0] $end
$var wire 1 < mult_ready2 $end
$var wire 1 = mult_ready1 $end
$var wire 1 > mostrar_dato $end
$var wire 4 ? ff_out [3:0] $end
$var wire 1 @ enable_input $end
$var wire 1 A dispuni $end
$var wire 1 B dispmil $end
$var wire 1 C dispdec $end
$var wire 1 D dispcen $end
$var wire 2 E colum_code [1:0] $end
$var wire 4 F colum [3:0] $end
$var wire 1 G clk_cut $end
$var wire 16 H bin_num2 [15:0] $end
$var wire 16 I bin_num1 [15:0] $end
$var wire 16 J bcd_num2 [15:0] $end
$var wire 16 K bcd_num1 [15:0] $end
$var wire 16 L bcd [15:0] $end
$scope module bcd_binario_inst1 $end
$var wire 8 M entrada_bcd [7:0] $end
$var wire 1 : multiplic_flag $end
$var reg 8 N decenas [7:0] $end
$var reg 1 = mult_ready $end
$var reg 8 O salida_bin [7:0] $end
$var reg 8 P unidades [7:0] $end
$upscope $end
$scope module bcd_binario_inst2 $end
$var wire 8 Q entrada_bcd [7:0] $end
$var wire 1 : multiplic_flag $end
$var reg 8 R decenas [7:0] $end
$var reg 1 < mult_ready $end
$var reg 8 S salida_bin [7:0] $end
$var reg 8 T unidades [7:0] $end
$upscope $end
$scope module bcd_stored_num_inst $end
$var wire 1 " clk $end
$var wire 1 # reset $end
$var wire 4 U nuevo_numero [3:0] $end
$var reg 8 V bcd_num1 [7:0] $end
$var reg 8 W bcd_num2 [7:0] $end
$var reg 1 : multiplic_flag $end
$var reg 1 9 neg_flag1 $end
$var reg 1 8 neg_flag2 $end
$var reg 1 6 neg_sign $end
$var reg 8 X salida_bcd [7:0] $end
$upscope $end
$scope module binario_bcd_resultado $end
$var wire 14 Y bin_for_bcd [13:0] $end
$var reg 16 Z bcd_out [15:0] $end
$var reg 30 [ shift [29:0] $end
$var integer 32 \ i [31:0] $end
$upscope $end
$scope module boothMul_inst $end
$var wire 8 ] X [7:0] $end
$var wire 8 ^ Y [7:0] $end
$var wire 1 " clk $end
$var wire 1 # rst $end
$var wire 1 < start $end
$var parameter 1 _ IDLE $end
$var parameter 1 ` START $end
$var reg 16 a Z [15:0] $end
$var reg 16 b Z_temp [15:0] $end
$var reg 3 c count [2:0] $end
$var reg 16 d next_Z [15:0] $end
$var reg 3 e next_count [2:0] $end
$var reg 1 f next_state $end
$var reg 2 g next_temp [1:0] $end
$var reg 1 h next_valid $end
$var reg 1 i pres_state $end
$var reg 2 j temp [1:0] $end
$var reg 1 k valid $end
$var reg 1 3 valid_out $end
$var reg 16 l z_out [15:0] $end
$upscope $end
$scope module ccm $end
$var wire 1 " clk $end
$var wire 1 # reset $end
$var wire 1 ) stop_flag $end
$var reg 1 G clk_cut $end
$var reg 32 m counter [31:0] $end
$var reg 1 @ enable_input $end
$var reg 1 > mostrar_dato $end
$var reg 1 4 reset_input_ff $end
$var reg 32 n stop_count [31:0] $end
$upscope $end
$scope module colum_on_inst $end
$var wire 1 G clk_cut $end
$var wire 1 # reset $end
$var reg 4 o colum [3:0] $end
$var reg 2 p colum_code [1:0] $end
$upscope $end
$scope module deco_out_inst $end
$var wire 4 q q_in [3:0] $end
$var reg 4 r num_out [3:0] $end
$upscope $end
$scope module nsm $end
$var wire 1 : keep_sign_on $end
$var wire 1 9 neg_flag1 $end
$var wire 1 8 neg_flag2 $end
$var wire 1 6 neg_sign_disp $end
$var reg 1 s inter_neg_flag $end
$var reg 1 7 neg_sign_output $end
$upscope $end
$scope module out_ff0 $end
$var wire 1 " clk $end
$var wire 1 t d $end
$var wire 1 > mostrar_dato $end
$var wire 1 # reset $end
$var wire 1 u q $end
$var wire 1 ) enable $end
$var reg 1 v q_reg $end
$upscope $end
$scope module out_ff1 $end
$var wire 1 " clk $end
$var wire 1 w d $end
$var wire 1 > mostrar_dato $end
$var wire 1 # reset $end
$var wire 1 x q $end
$var wire 1 ) enable $end
$var reg 1 y q_reg $end
$upscope $end
$scope module out_ff2 $end
$var wire 1 " clk $end
$var wire 1 z d $end
$var wire 1 > mostrar_dato $end
$var wire 1 # reset $end
$var wire 1 { q $end
$var wire 1 ) enable $end
$var reg 1 | q_reg $end
$upscope $end
$scope module out_ff3 $end
$var wire 1 " clk $end
$var wire 1 } d $end
$var wire 1 > mostrar_dato $end
$var wire 1 # reset $end
$var wire 1 ~ q $end
$var wire 1 ) enable $end
$var reg 1 !" q_reg $end
$upscope $end
$scope module row0_sync $end
$var wire 1 " clk $end
$var wire 1 "" input_pulse $end
$var wire 1 # reset $end
$var reg 1 #" sync_ff1 $end
$var reg 1 $" sync_ff2 $end
$var reg 1 %" sync_input $end
$upscope $end
$scope module row1_sync $end
$var wire 1 " clk $end
$var wire 1 &" input_pulse $end
$var wire 1 # reset $end
$var reg 1 '" sync_ff1 $end
$var reg 1 (" sync_ff2 $end
$var reg 1 )" sync_input $end
$upscope $end
$scope module row2_sync $end
$var wire 1 " clk $end
$var wire 1 *" input_pulse $end
$var wire 1 # reset $end
$var reg 1 +" sync_ff1 $end
$var reg 1 ," sync_ff2 $end
$var reg 1 -" sync_input $end
$upscope $end
$scope module row3_sync $end
$var wire 1 " clk $end
$var wire 1 ." input_pulse $end
$var wire 1 # reset $end
$var reg 1 /" sync_ff1 $end
$var reg 1 0" sync_ff2 $end
$var reg 1 1" sync_input $end
$upscope $end
$scope module row_detect_ins $end
$var wire 4 2" row [3:0] $end
$var reg 2 3" row_code [1:0] $end
$var reg 1 ) stop_flag $end
$upscope $end
$scope module row_ff0 $end
$var wire 1 " clk $end
$var wire 1 4" d $end
$var wire 1 @ enable $end
$var wire 1 4 reset $end
$var reg 1 5" q $end
$upscope $end
$scope module row_ff1 $end
$var wire 1 " clk $end
$var wire 1 6" d $end
$var wire 1 @ enable $end
$var wire 1 4 reset $end
$var reg 1 7" q $end
$upscope $end
$scope module row_ff2 $end
$var wire 1 " clk $end
$var wire 1 8" d $end
$var wire 1 @ enable $end
$var wire 1 4 reset $end
$var reg 1 9" q $end
$upscope $end
$scope module row_ff3 $end
$var wire 1 " clk $end
$var wire 1 :" d $end
$var wire 1 @ enable $end
$var wire 1 4 reset $end
$var reg 1 ;" q $end
$upscope $end
$scope module s7d $end
$var wire 1 " clk $end
$var wire 1 # reset $end
$var wire 1 0 segA $end
$var wire 1 / segB $end
$var wire 1 . segC $end
$var wire 1 - segD $end
$var wire 1 , segE $end
$var wire 1 + segF $end
$var wire 1 * segG $end
$var wire 16 <" bcd [15:0] $end
$var reg 1 =" a $end
$var reg 1 >" b $end
$var reg 1 ?" c $end
$var reg 1 @" clk_cut1 $end
$var reg 32 A" counter1 [31:0] $end
$var reg 2 B" cycle_count1 [1:0] $end
$var reg 1 C" d $end
$var reg 2 D" disp [1:0] $end
$var reg 1 D dispcen $end
$var reg 1 C dispdec $end
$var reg 1 B dispmil $end
$var reg 1 A dispuni $end
$var reg 1 E" e $end
$upscope $end
$scope module show_num_inst $end
$var wire 16 F" mult_result_bcd [15:0] $end
$var wire 1 3 result_ok $end
$var wire 16 G" stored_num_bcd [15:0] $end
$var reg 16 H" bcd_to_s7d [15:0] $end
$upscope $end
$upscope $end
$upscope $end
$enddefinitions $end
$comment Show the parameter values. $end
$dumpall
1`
0_
$end
#0
$dumpvars
b0 H"
b0 G"
b0 F"
xE"
bx D"
xC"
bx B"
b0 A"
0@"
x?"
x>"
x="
b0 <"
x;"
0:"
x9"
08"
x7"
06"
x5"
04"
bz 3"
bx 2"
01"
00"
0/"
0."
0-"
0,"
0+"
0*"
0)"
0("
0'"
0&"
0%"
0$"
0#"
0""
0!"
0~
0}
0|
0{
0z
0y
0x
zw
0v
0u
zt
0s
b1010 r
b0 q
b0 p
b1 o
b0 n
b0 m
b0 l
0k
b0 j
0i
0h
b0 g
0f
b0 e
b0 d
b0 c
bx b
b0 a
b0 ^
b0 ]
b1110 \
b0 [
b0 Z
b0 Y
b0 X
b0 W
b0 V
b1010 U
b0 T
b0 S
b0 R
b0 Q
b0 P
b0 O
b0 N
b0 M
b0 L
b0 K
b0 J
b0 I
b0 H
0G
b1 F
b0 E
xD
xC
xB
xA
1@
b0 ?
0>
0=
0<
b0 ;
0:
09
08
17
06
b1010 5
04
03
bz 2
b0 1
x0
x/
x.
x-
x,
x+
x*
0)
bx (
b0 '
b0 &
b0 %
b0 $
1#
0"
b1 !
$end
#1
0;"
09"
07"
b0 (
b0 2"
05"
1"
#2
0"
#3
1"
#4
0"
#5
1"
#6
0"
#7
1"
#8
0"
#9
1"
#10
0"
#11
1"
#12
0"
#13
1"
#14
0"
#15
1"
#16
0"
#17
1"
#18
0"
#19
1"
#20
0"
0#
#21
b1 m
b1 A"
1"
#22
0"
#23
b10 A"
b10 m
1"
#24
0"
#25
b11 m
b11 A"
1"
#26
0"
#27
b100 A"
b100 m
1"
#28
0"
#29
b101 m
b101 A"
1"
#30
0"
#31
b110 A"
b110 m
1"
#32
0"
#33
b111 m
b111 A"
1"
#34
0"
#35
b1000 A"
b1000 m
1"
#36
0"
#37
b1001 m
b1001 A"
1"
#38
0"
#39
b1010 A"
b1010 m
1"
#40
0"
#41
b1011 m
b1011 A"
1"
#42
0"
#43
b1100 A"
b1100 m
1"
#44
0"
#45
b1101 m
b1101 A"
1"
#46
0"
#47
b1110 A"
b1110 m
1"
#48
0"
#49
b1111 m
b1111 A"
1"
#50
0"
#51
b10000 A"
b10000 m
1"
#52
0"
#53
b10001 m
b10001 A"
1"
#54
0"
#55
b10010 A"
b10010 m
1"
#56
0"
#57
b10011 m
b10011 A"
1"
#58
0"
#59
b10100 A"
b10100 m
1"
#60
1""
0"
b1 $
b1 %
#61
b10101 m
1#"
b10101 A"
1"
#62
0"
#63
b10110 A"
1$"
b10110 m
1"
#64
0"
#65
14"
b10111 m
b1 '
1%"
0#"
b10111 A"
0""
1"
b0 $
b0 %
#66
0"
#67
0t
0w
b0 2
b0 3"
1)
b11000 A"
0$"
b11000 m
b1 (
b1 2"
15"
1"
#68
0"
#69
04"
0@
b1 n
b0 '
0%"
b11001 A"
1"
#70
0"
#71
b11010 A"
b10 n
1"
#72
0"
#73
b11 n
b11011 A"
1"
#74
0"
#75
b11100 A"
b100 n
1"
#76
0"
#77
b101 n
b11101 A"
1"
#78
0"
#79
b11110 A"
b110 n
1"
#80
0"
#81
b111 n
b11111 A"
1"
#82
0"
#83
b100000 A"
b1000 n
1"
#84
0"
#85
b1001 n
b100001 A"
1"
#86
0"
#87
b100010 A"
b1010 n
1"
#88
0"
#89
b1011 n
b100011 A"
1"
#90
0"
#91
b100100 A"
b1100 n
1"
#92
0"
#93
b1101 n
b100101 A"
1"
#94
0"
#95
b100110 A"
b1110 n
1"
#96
0"
#97
b1111 n
b100111 A"
1"
#98
0"
#99
b101000 A"
b10000 n
1"
#100
0"
#101
b10001 n
b101001 A"
1"
#102
0"
#103
b101010 A"
b10010 n
1"
#104
0"
#105
b10011 n
b101011 A"
1"
#106
0"
#107
b101100 A"
b10100 n
1"
#108
0"
#109
b10101 n
b101101 A"
1"
#110
0"
#111
b101110 A"
b10110 n
1"
#112
0"
#113
b10111 n
b101111 A"
1"
#114
0"
#115
b110000 A"
b11000 n
1"
#116
0"
#117
b11001 n
b110001 A"
1"
#118
0"
#119
b110010 A"
b11010 n
1"
#120
0"
#121
b11011 n
b110011 A"
1"
#122
0"
#123
b110100 A"
b11100 n
1"
#124
0"
#125
b11101 n
b110101 A"
1"
#126
0"
#127
b110110 A"
b11110 n
1"
#128
0"
#129
b11111 n
b110111 A"
1"
#130
0"
#131
b111000 A"
b100000 n
1"
#132
0"
#133
b100001 n
b111001 A"
1"
#134
0"
#135
b111010 A"
b100010 n
1"
#136
0"
#137
b100011 n
b111011 A"
1"
#138
0"
#139
b111100 A"
b100100 n
1"
#140
0"
#141
b100101 n
b111101 A"
1"
#142
0"
#143
b111110 A"
b100110 n
1"
#144
0"
#145
b100111 n
b111111 A"
1"
#146
0"
#147
b1000000 A"
b101000 n
1"
#148
0"
#149
b101001 n
b1000001 A"
1"
#150
0"
#151
b1000010 A"
b101010 n
1"
#152
0"
#153
b101011 n
b1000011 A"
1"
#154
0"
#155
b1000100 A"
b101100 n
1"
#156
0"
#157
b101101 n
b1000101 A"
1"
#158
0"
#159
b1000110 A"
b101110 n
1"
#160
0"
#161
b101111 n
b1000111 A"
1"
#162
0"
#163
b1001000 A"
b110000 n
1"
#164
0"
#165
b110001 n
b1001001 A"
1"
#166
0"
#167
b1001010 A"
b110010 n
1"
#168
0"
#169
b110011 n
b1001011 A"
1"
#170
0"
#171
b1001100 A"
b110100 n
1"
#172
0"
#173
b110101 n
b1001101 A"
1"
#174
0"
#175
b1001110 A"
b110110 n
1"
#176
0"
#177
b110111 n
b1001111 A"
1"
#178
0"
#179
b1010000 A"
b111000 n
1"
#180
0"
#181
b111001 n
b1010001 A"
1"
#182
0"
#183
b1010010 A"
b111010 n
1"
#184
0"
#185
b111011 n
b1010011 A"
1"
#186
0"
#187
b1010100 A"
b111100 n
1"
#188
0"
#189
b111101 n
b1010101 A"
1"
#190
0"
#191
b1010110 A"
b111110 n
1"
#192
0"
#193
b111111 n
b1010111 A"
1"
#194
0"
#195
b1011000 A"
b1000000 n
1"
#196
0"
#197
b1000001 n
b1011001 A"
1"
#198
0"
#199
b1011010 A"
b1000010 n
1"
#200
0"
#201
b1000011 n
b1011011 A"
1"
#202
0"
#203
b1011100 A"
b1000100 n
1"
#204
0"
#205
b1000101 n
b1011101 A"
1"
#206
0"
#207
b1011110 A"
b1000110 n
1"
#208
0"
#209
b1000111 n
b1011111 A"
1"
#210
0"
#211
b1100000 A"
b1001000 n
1"
#212
0"
#213
b1001001 n
b1100001 A"
1"
#214
0"
#215
b1100010 A"
b1001010 n
1"
#216
0"
#217
b1001011 n
b1100011 A"
1"
#218
0"
#219
b1100100 A"
b1001100 n
1"
#220
0"
#221
b1001101 n
b1100101 A"
1"
#222
0"
#223
b1100110 A"
b1001110 n
1"
#224
0"
#225
b1001111 n
b1100111 A"
1"
#226
0"
#227
b1101000 A"
b1010000 n
1"
#228
0"
#229
b1010001 n
b1101001 A"
1"
#230
0"
#231
b1101010 A"
b1010010 n
1"
#232
0"
#233
b1010011 n
b1101011 A"
1"
#234
0"
#235
b1101100 A"
b1010100 n
1"
#236
0"
#237
b1010101 n
b1101101 A"
1"
#238
0"
#239
b1101110 A"
b1010110 n
1"
#240
0"
#241
b1010111 n
b1101111 A"
1"
#242
0"
#243
b1110000 A"
b1011000 n
1"
#244
0"
#245
b1011001 n
b1110001 A"
1"
#246
0"
#247
b1110010 A"
b1011010 n
1"
#248
0"
#249
b1011011 n
b1110011 A"
1"
#250
0"
#251
b1110100 A"
b1011100 n
1"
#252
0"
#253
b1011101 n
b1110101 A"
1"
#254
0"
#255
b1110110 A"
b1011110 n
1"
#256
0"
#257
b1011111 n
b1110111 A"
1"
#258
0"
#259
b1111000 A"
b1100000 n
1"
#260
0"
#261
b1100001 n
b1111001 A"
1"
#262
0"
#263
b1111010 A"
b1100010 n
1"
#264
0"
#265
b1100011 n
b1111011 A"
1"
#266
0"
#267
b1111100 A"
b1100100 n
1"
#268
0"
#269
b1100101 n
b1111101 A"
1"
#270
0"
#271
b1111110 A"
b1100110 n
1"
#272
0"
#273
b1100111 n
b1111111 A"
1"
#274
0"
#275
b10000000 A"
b1101000 n
1"
#276
0"
#277
b1101001 n
b10000001 A"
1"
#278
0"
#279
b10000010 A"
b1101010 n
1"
#280
0"
#281
b1101011 n
b10000011 A"
1"
#282
0"
#283
b10000100 A"
b1101100 n
1"
#284
0"
#285
b1101101 n
b10000101 A"
1"
#286
0"
#287
b10000110 A"
b1101110 n
1"
#288
0"
#289
b1101111 n
b10000111 A"
1"
#290
0"
#291
b10001000 A"
b1110000 n
1"
#292
0"
#293
b1110001 n
b10001001 A"
1"
#294
0"
#295
b10001010 A"
b1110010 n
1"
#296
0"
#297
b1110011 n
b10001011 A"
1"
#298
0"
#299
b10001100 A"
b1110100 n
1"
#300
0"
#301
b1110101 n
b10001101 A"
1"
#302
0"
#303
b10001110 A"
b1110110 n
1"
#304
0"
#305
b1110111 n
b10001111 A"
1"
#306
0"
#307
b10010000 A"
b1111000 n
1"
#308
0"
#309
b1111001 n
b10010001 A"
1"
#310
0"
#311
b10010010 A"
b1111010 n
1"
#312
0"
#313
b1111011 n
b10010011 A"
1"
#314
0"
#315
b10010100 A"
b1111100 n
1"
#316
0"
#317
b1111101 n
b10010101 A"
1"
#318
0"
#319
b10010110 A"
b1111110 n
1"
#320
0"
#321
b1111111 n
b10010111 A"
1"
#322
0"
#323
b10011000 A"
b10000000 n
1"
#324
0"
#325
b10000001 n
b10011001 A"
1"
#326
0"
#327
b10011010 A"
b10000010 n
1"
#328
0"
#329
b10000011 n
b10011011 A"
1"
#330
0"
#331
b10011100 A"
b10000100 n
1"
#332
0"
#333
b10000101 n
b10011101 A"
1"
#334
0"
#335
b10011110 A"
b10000110 n
1"
#336
0"
#337
b10000111 n
b10011111 A"
1"
#338
0"
#339
b10100000 A"
b10001000 n
1"
#340
0"
#341
b10001001 n
b10100001 A"
1"
#342
0"
#343
b10100010 A"
b10001010 n
1"
#344
0"
#345
b10001011 n
b10100011 A"
1"
#346
0"
#347
b10100100 A"
b10001100 n
1"
#348
0"
#349
b10001101 n
b10100101 A"
1"
#350
0"
#351
b10100110 A"
b10001110 n
1"
#352
0"
#353
b10001111 n
b10100111 A"
1"
#354
0"
#355
b10101000 A"
b10010000 n
1"
#356
0"
#357
b10010001 n
b10101001 A"
1"
#358
0"
#359
b10101010 A"
b10010010 n
1"
#360
0"
#361
b10010011 n
b10101011 A"
1"
#362
0"
#363
b10101100 A"
b10010100 n
1"
#364
0"
#365
b10010101 n
b10101101 A"
1"
#366
0"
#367
b10101110 A"
b10010110 n
1"
#368
0"
#369
b10010111 n
b10101111 A"
1"
#370
0"
#371
b10110000 A"
b10011000 n
1"
#372
0"
#373
b10011001 n
b10110001 A"
1"
#374
0"
#375
b10110010 A"
b10011010 n
1"
#376
0"
#377
b10011011 n
b10110011 A"
1"
#378
0"
#379
b10110100 A"
b10011100 n
1"
#380
0"
#381
b10011101 n
b10110101 A"
1"
#382
0"
#383
b10110110 A"
b10011110 n
1"
#384
0"
#385
b10011111 n
b10110111 A"
1"
#386
0"
#387
b10111000 A"
b10100000 n
1"
#388
0"
#389
b10100001 n
b10111001 A"
1"
#390
0"
#391
b10111010 A"
b10100010 n
1"
#392
0"
#393
b10100011 n
b10111011 A"
1"
#394
0"
#395
b10111100 A"
b10100100 n
1"
#396
0"
#397
b10100101 n
b10111101 A"
1"
#398
0"
#399
b10111110 A"
b10100110 n
1"
#400
0"
#401
b10100111 n
b10111111 A"
1"
#402
0"
#403
b11000000 A"
b10101000 n
1"
#404
0"
#405
b10101001 n
b11000001 A"
1"
#406
0"
#407
b11000010 A"
b10101010 n
1"
#408
0"
#409
b10101011 n
b11000011 A"
1"
#410
0"
#411
b11000100 A"
b10101100 n
1"
#412
0"
#413
b10101101 n
b11000101 A"
1"
#414
0"
#415
b11000110 A"
b10101110 n
1"
#416
0"
#417
b10101111 n
b11000111 A"
1"
#418
0"
#419
b11001000 A"
b10110000 n
1"
#420
0"
#421
b10110001 n
b11001001 A"
1"
#422
0"
#423
b11001010 A"
b10110010 n
1"
#424
0"
#425
b10110011 n
b11001011 A"
1"
#426
0"
#427
b11001100 A"
b10110100 n
1"
#428
0"
#429
b10110101 n
b11001101 A"
1"
#430
0"
#431
b11001110 A"
b10110110 n
1"
#432
0"
#433
b10110111 n
b11001111 A"
1"
#434
0"
#435
b11010000 A"
b10111000 n
1"
#436
0"
#437
b10111001 n
b11010001 A"
1"
#438
0"
#439
b11010010 A"
b10111010 n
1"
#440
0"
#441
b10111011 n
b11010011 A"
1"
#442
0"
#443
b11010100 A"
b10111100 n
1"
#444
0"
#445
b10111101 n
b11010101 A"
1"
#446
0"
#447
b11010110 A"
b10111110 n
1"
#448
0"
#449
b10111111 n
b11010111 A"
1"
#450
0"
#451
b11011000 A"
b11000000 n
1"
#452
0"
#453
b11000001 n
b11011001 A"
1"
#454
0"
#455
b11011010 A"
b11000010 n
1"
#456
0"
#457
b11000011 n
b11011011 A"
1"
#458
0"
#459
b11011100 A"
b11000100 n
1"
#460
0"
#461
b11000101 n
b11011101 A"
1"
#462
0"
#463
b11011110 A"
b11000110 n
1"
#464
0"
#465
b11000111 n
b11011111 A"
1"
#466
0"
#467
b11100000 A"
b11001000 n
1"
#468
0"
#469
b11001001 n
b11100001 A"
1"
#470
0"
#471
b11100010 A"
b11001010 n
1"
#472
0"
#473
b11001011 n
b11100011 A"
1"
#474
0"
#475
b11100100 A"
b11001100 n
1"
#476
0"
#477
b11001101 n
b11100101 A"
1"
#478
0"
#479
b11100110 A"
b11001110 n
1"
#480
0"
#481
b11001111 n
b11100111 A"
1"
#482
0"
#483
b11101000 A"
b11010000 n
1"
#484
0"
#485
b11010001 n
b11101001 A"
1"
#486
0"
#487
b11101010 A"
b11010010 n
1"
#488
0"
#489
b11010011 n
b11101011 A"
1"
#490
0"
#491
b11101100 A"
b11010100 n
1"
#492
0"
#493
b11010101 n
b11101101 A"
1"
#494
0"
#495
b11101110 A"
b11010110 n
1"
#496
0"
#497
b11010111 n
b11101111 A"
1"
#498
0"
#499
b11110000 A"
b11011000 n
1"
#500
0"
#501
b11011001 n
b11110001 A"
1"
#502
0"
#503
b11110010 A"
b11011010 n
1"
#504
0"
#505
b11011011 n
b11110011 A"
1"
#506
0"
#507
b11110100 A"
b11011100 n
1"
#508
0"
#509
b11011101 n
b11110101 A"
1"
#510
0"
#511
b11110110 A"
b11011110 n
1"
#512
0"
#513
b11011111 n
b11110111 A"
1"
#514
0"
#515
b11111000 A"
b11100000 n
1"
#516
0"
#517
b11100001 n
b11111001 A"
1"
#518
0"
#519
b11111010 A"
b11100010 n
1"
#520
0"
#521
b11100011 n
b11111011 A"
1"
#522
0"
#523
b11111100 A"
b11100100 n
1"
#524
0"
#525
b11100101 n
b11111101 A"
1"
#526
0"
#527
b11111110 A"
b11100110 n
1"
#528
0"
#529
b11100111 n
b11111111 A"
1"
#530
0"
#531
b100000000 A"
b11101000 n
1"
#532
0"
#533
b11101001 n
b100000001 A"
1"
#534
0"
#535
b100000010 A"
b11101010 n
1"
#536
0"
#537
b11101011 n
b100000011 A"
1"
#538
0"
#539
b100000100 A"
b11101100 n
1"
#540
0"
#541
b11101101 n
b100000101 A"
1"
#542
0"
#543
b100000110 A"
b11101110 n
1"
#544
0"
#545
b11101111 n
b100000111 A"
1"
#546
0"
#547
b100001000 A"
b11110000 n
1"
#548
0"
#549
b11110001 n
b100001001 A"
1"
#550
0"
#551
b100001010 A"
b11110010 n
1"
#552
0"
#553
b11110011 n
b100001011 A"
1"
#554
0"
#555
b100001100 A"
b11110100 n
1"
#556
0"
#557
b11110101 n
b100001101 A"
1"
#558
0"
#559
b100001110 A"
b11110110 n
1"
#560
0"
#561
b11110111 n
b100001111 A"
1"
#562
0"
#563
b100010000 A"
b11111000 n
1"
#564
0"
#565
b11111001 n
b100010001 A"
1"
#566
0"
#567
b100010010 A"
b11111010 n
1"
#568
0"
#569
b11111011 n
b100010011 A"
1"
#570
0"
#571
b100010100 A"
b11111100 n
1"
#572
0"
#573
b11111101 n
b100010101 A"
1"
#574
0"
#575
b100010110 A"
b11111110 n
1"
#576
0"
#577
b11111111 n
b100010111 A"
1"
#578
0"
#579
b100011000 A"
b100000000 n
1"
#580
0"
#581
b100000001 n
b100011001 A"
1"
#582
0"
#583
b100011010 A"
b100000010 n
1"
#584
0"
#585
b100000011 n
b100011011 A"
1"
#586
0"
#587
b100011100 A"
b100000100 n
1"
#588
0"
#589
b100000101 n
b100011101 A"
1"
#590
0"
#591
b100011110 A"
b100000110 n
1"
#592
0"
#593
b100000111 n
b100011111 A"
1"
#594
0"
#595
b100100000 A"
b100001000 n
1"
#596
0"
#597
b100001001 n
b100100001 A"
1"
#598
0"
#599
b100100010 A"
b100001010 n
1"
#600
0"
#601
b100001011 n
b100100011 A"
1"
#602
0"
#603
b100100100 A"
b100001100 n
1"
#604
0"
#605
b100001101 n
b100100101 A"
1"
#606
0"
#607
b100100110 A"
b100001110 n
1"
#608
0"
#609
b100001111 n
b100100111 A"
1"
#610
0"
#611
b100101000 A"
b100010000 n
1"
#612
0"
#613
b100010001 n
b100101001 A"
1"
#614
0"
#615
b100101010 A"
b100010010 n
1"
#616
0"
#617
b100010011 n
b100101011 A"
1"
#618
0"
#619
b100101100 A"
b100010100 n
1"
#620
0"
#621
b100010101 n
b100101101 A"
1"
#622
0"
#623
b100101110 A"
b100010110 n
1"
#624
0"
#625
b100010111 n
b100101111 A"
1"
#626
0"
#627
b100110000 A"
b100011000 n
1"
#628
0"
#629
b100011001 n
b100110001 A"
1"
#630
0"
#631
b100110010 A"
b100011010 n
1"
#632
0"
#633
b100011011 n
b100110011 A"
1"
#634
0"
#635
b100110100 A"
b100011100 n
1"
#636
0"
#637
b100011101 n
b100110101 A"
1"
#638
0"
#639
b100110110 A"
b100011110 n
1"
#640
0"
#641
b100011111 n
b100110111 A"
1"
#642
0"
#643
b100111000 A"
b100100000 n
1"
#644
0"
#645
b100100001 n
b100111001 A"
1"
#646
0"
#647
b100111010 A"
b100100010 n
1"
#648
0"
#649
b100100011 n
b100111011 A"
1"
#650
0"
#651
b100111100 A"
b100100100 n
1"
#652
0"
#653
b100100101 n
b100111101 A"
1"
#654
0"
#655
b100111110 A"
b100100110 n
1"
#656
0"
#657
b100100111 n
b100111111 A"
1"
#658
0"
#659
b101000000 A"
b100101000 n
1"
#660
0"
#661
b100101001 n
b101000001 A"
1"
#662
0"
#663
b101000010 A"
b100101010 n
1"
#664
0"
#665
b100101011 n
b101000011 A"
1"
#666
0"
#667
b101000100 A"
b100101100 n
1"
#668
0"
#669
b100101101 n
b101000101 A"
1"
#670
0"
#671
b101000110 A"
b100101110 n
1"
#672
0"
#673
b100101111 n
b101000111 A"
1"
#674
0"
#675
b101001000 A"
b100110000 n
1"
#676
0"
#677
b100110001 n
b101001001 A"
1"
#678
0"
#679
b101001010 A"
b100110010 n
1"
#680
0"
#681
b100110011 n
b101001011 A"
1"
#682
0"
#683
b101001100 A"
b100110100 n
1"
#684
0"
#685
b100110101 n
b101001101 A"
1"
#686
0"
#687
b101001110 A"
b100110110 n
1"
#688
0"
#689
b100110111 n
b101001111 A"
1"
#690
0"
#691
b101010000 A"
b100111000 n
1"
#692
0"
#693
b100111001 n
b101010001 A"
1"
#694
0"
#695
b101010010 A"
b100111010 n
1"
#696
0"
#697
b100111011 n
b101010011 A"
1"
#698
0"
#699
b101010100 A"
b100111100 n
1"
#700
0"
#701
b100111101 n
b101010101 A"
1"
#702
0"
#703
b101010110 A"
b100111110 n
1"
#704
0"
#705
b100111111 n
b101010111 A"
1"
#706
0"
#707
b101011000 A"
b101000000 n
1"
#708
0"
#709
b101000001 n
b101011001 A"
1"
#710
0"
#711
b101011010 A"
b101000010 n
1"
#712
0"
#713
b101000011 n
b101011011 A"
1"
#714
0"
#715
b101011100 A"
b101000100 n
1"
#716
0"
#717
b101000101 n
b101011101 A"
1"
#718
0"
#719
b101011110 A"
b101000110 n
1"
#720
0"
#721
b101000111 n
b101011111 A"
1"
#722
0"
#723
b101100000 A"
b101001000 n
1"
#724
0"
#725
b101001001 n
b101100001 A"
1"
#726
0"
#727
b101100010 A"
b101001010 n
1"
#728
0"
#729
b101001011 n
b101100011 A"
1"
#730
0"
#731
b101100100 A"
b101001100 n
1"
#732
0"
#733
b101001101 n
b101100101 A"
1"
#734
0"
#735
b101100110 A"
b101001110 n
1"
#736
0"
#737
b101001111 n
b101100111 A"
1"
#738
0"
#739
b101101000 A"
b101010000 n
1"
#740
0"
#741
b101010001 n
b101101001 A"
1"
#742
0"
#743
b101101010 A"
b101010010 n
1"
#744
0"
#745
b101010011 n
b101101011 A"
1"
#746
0"
#747
b101101100 A"
b101010100 n
1"
#748
0"
#749
b101010101 n
b101101101 A"
1"
#750
0"
#751
b101101110 A"
b101010110 n
1"
#752
0"
#753
b101010111 n
b101101111 A"
1"
#754
0"
#755
b101110000 A"
b101011000 n
1"
#756
0"
#757
b101011001 n
b101110001 A"
1"
#758
0"
#759
b101110010 A"
b101011010 n
1"
#760
0"
#761
b101011011 n
b101110011 A"
1"
#762
0"
#763
b101110100 A"
b101011100 n
1"
#764
0"
#765
b101011101 n
b101110101 A"
1"
#766
0"
#767
b101110110 A"
b101011110 n
1"
#768
0"
#769
b101011111 n
b101110111 A"
1"
#770
0"
#771
b101111000 A"
b101100000 n
1"
#772
0"
